…
homicide_df
```

    ## # A tibble: 48,507 x 14
    ##    city_state resolved uid   reported_date victim_last victim_first
    ##    <chr>         <dbl> <chr>         <int> <chr>       <chr>       
    ##  1 Albuquerq~        0 Alb-~      20100504 GARCIA      JUAN        
    ##  2 Albuquerq~        1 Alb-~      20100216 MONTOYA     CAMERON     
    ##  3 Albuquerq~        0 Alb-~      20100601 SATTERFIELD VIVIANA     
    ##  4 Albuquerq~        1 Alb-~      20100101 MENDIOLA    CARLOS      
    ##  5 Albuquerq~        0 Alb-~      20100102 MULA        VIVIAN      
    ##  6 Albuquerq~        0 Alb-~      20100126 BOOK        GERALDINE   
    ##  7 Albuquerq~        1 Alb-~      20100127 MALDONADO   DAVID       
    ##  8 Albuquerq~        1 Alb-~      20100127 MALDONADO   CONNIE      
    ##  9 Albuquerq~        0 Alb-~      20100130 MARTIN-LEY~ GUSTAVO     
    ## 10 Albuquerq~        0 Alb-~      20100210 HERRERA     ISRAEL      
    ## # ... with 48,497 more rows, and 8 more variables: victim_race <fct>,
    ## #   victim_age <dbl>, victim_sex <chr>, city <chr>, state <chr>,
    ## #   lat <dbl>, lon <dbl>, disposition <chr>
…
  nest() %>% 
  mutate(resolved_logistic = 
         map(data, ~glm(resolved ~ victim_age + victim_sex + victim_race, data = ., family = binomial())),
         resolved_logistic = map(resolved_logistic, broom::tidy)) %>% 
  select(city_state, resolved_logistic) %>% 
  unnest() %>% 
  filter(term == "victim_raceNon-White") %>% 
  mutate(OR = exp(estimate), 
         lower_limit = exp(estimate - qnorm(0.975)*std.error), 
         upper_limit = exp(estimate + qnorm(0.975)*std.error)) %>% 
  select(city_state, OR, lower_limit, upper_limit) 
or_df
```

    ## # A tibble: 47 x 4
    ##    city_state         OR lower_limit upper_limit
    ##    <chr>           <dbl>       <dbl>       <dbl>
    ##  1 Albuquerque, NM 0.741      0.451        1.22 
    ##  2 Atlanta, GA     0.753      0.432        1.31 
    ##  3 Baltimore, MD   0.441      0.313        0.620
    ##  4 Baton Rouge, LA 0.668      0.313        1.43 
    ##  5 Birmingham, AL  1.04       0.615        1.76 
    ##  6 Boston, MA      0.115      0.0472       0.278
    ##  7 Buffalo, NY     0.390      0.213        0.714
    ##  8 Charlotte, NC   0.558      0.321        0.969
    ##  9 Chicago, IL     0.562      0.431        0.733
    ## 10 Cincinnati, OH  0.318      0.184        0.551
    ## # ... with 37 more rows
…
bwt_data =
  bwt_data %>% 
  mutate(babysex = as.factor(recode(babysex, '1' = 'Male', '2' = 'Female')), 
         frace = as.factor(recode(frace, `1` = 'White', `2` = 'Black', 
                               `3` = 'Asian', `4` = 'Puerto Rican', 
                               `8` = 'Other', `9` = 'Unknown')), 
         malform = as.factor(ifelse(malform == 1, "present", "absent")), 
         mrace = as.factor(recode(mrace, `1` = 'White', `2` = 'Black',
                               `3` = 'Asian', `4` = 'Puerto Rican',
                               `8` = 'Other'))) %>% 
  select(bwt, everything())
bwt_data
```

    ## # A tibble: 4,342 x 20
    ##      bwt babysex bhead blength delwt fincome frace gaweeks malform menarche
    ##    <int> <fct>   <int>   <int> <int>   <int> <fct>   <dbl> <fct>      <int>
    ##  1  3629 Female     34      51   177      35 White    39.9 absent        13
    ##  2  3062 Male       34      48   156      65 Black    25.9 absent        14
    ##  3  3345 Female     36      50   148      85 White    39.9 absent        12
    ##  4  3062 Male       34      52   157      55 White    40   absent        14
    ##  5  3374 Female     34      52   156       5 White    41.6 absent        13
    ##  6  3374 Male       33      52   129      55 White    40.7 absent        12
    ##  7  2523 Female     33      46   126      96 Black    40.3 absent        14
    ##  8  2778 Female     33      49   140       5 White    37.4 absent        12
    ##  9  3515 Male       36      52   146      85 White    40.3 absent        11
    ## 10  3459 Male       33      50   169      75 Black    40.7 absent        12
    ## # ... with 4,332 more rows, and 10 more variables: mheight <int>,
    ## #   momage <int>, mrace <fct>, parity <int>, pnumlbw <int>, pnumsga <int>,
    ## #   ppbmi <dbl>, ppwt <int>, smoken <dbl>, wtgain <int>
…
